[
 {
  "name": "Ajax",
  "color": "rgb(14,235, 62)",
  "msg": "Hello!"
 },
 {
  "name": "Ajax",
  "color": "rgb(14,235, 62)",
  "msg": "fdgsdfgs"
 },
 {
  "name": "Ajax",
  "color": "rgb(14,235, 62)",
  "msg": "dfgs"
 },
 {
  "name": "Ajax",
  "color": "rgb(14,235, 62)",
  "msg": "sdfgs"
 },
 {
  "name": "Jerry",
  "color": "rgb(235,161, 14)",
  "msg": "Hello!"
 },
 {
  "name": "Jerry",
  "color": "rgb(235,161, 14)",
  "msg": "fasdfsd"
 },
 {
  "name": "Jerry",
  "color": "rgb(235,161, 14)",
  "msg": "asdfaf"
 },
 {
  "name": "Jerry",
  "color": "rgb(235,161, 14)",
  "msg": "asdfa"
 },
 {
  "name": "Jerry",
  "color": "rgb(235,161, 14)",
  "msg": "asdfasf"
 },
 {
  "name": "Jerry",
  "color": "rgb(235,161, 14)",
  "msg": "asfa"
 },
 {
  "name": "Tom",
  "color": "rgb(14,95, 235)",
  "msg": "Hello!"
 },
 {
  "name": "Tom",
  "color": "rgb(14,95, 235)",
  "msg": "refdsda"
 },
 {
  "name": "Tom",
  "color": "rgb(14,95, 235)",
  "msg": "efe"
 },
 {
  "name": "Jack",
  "color": "rgb(224,14, 235)",
  "msg": "Hello!gfgsfsgdfsgsdfgsfdgsfdgsfdgsfdgsfdsgdfsfdgsfdgsfdgsgfdsgdfgsfdgsdfgsdfgsdfgsdfgsfgsgsfgs"
 },
 {
  "name": "Marry",
  "color": "rgb(235,14, 58)",
  "msg": "Hello!"
 },
 {
  "name": "Marry",
  "color": "rgb(235,14, 58)",
  "msg": "sdfasd"
 },
 {
  "name": "Marry",
  "color": "rgb(235,14, 58)",
  "msg": "asdfadf"
 },
 {
  "name": "Marry",
  "color": "rgb(235,14, 58)",
  "msg": "asdfasdf"
 },
 {
  "name": "Marry",
  "color": "rgb(235,14, 58)",
  "msg": "asdfa"
 },
 {
  "name": "Marry",
  "color": "rgb(235,14, 58)",
  "msg": "asdfa"
 },
 {
  "name": "Marry",
  "color": "rgb(235,14, 58)",
  "msg": "asdf"
 },
 {
  "name": "Marry",
  "color": "rgb(235,14, 58)",
  "msg": "asdfa"
 },
 {
  "name": "Marry",
  "color": "rgb(235,14, 58)",
  "msg": "asdfadf"
 },
 {
  "name": "Marry",
  "color": "rgb(235,14, 58)",
  "msg": "asdfadfs"
 },
 {
  "name": "Apple",
  "color": "rgb(178,93, 217)",
  "msg": "Hello!"
 },
 {
  "name": "Apple",
  "color": "rgb(178,93, 217)",
  "msg": "dsfsdf"
 },
 {
  "name": "Apple",
  "color": "rgb(178,93, 217)",
  "msg": "dfsf"
 },
 {
  "name": "Apple",
  "color": "rgb(178,93, 217)",
  "msg": "sdfsd"
 },
 {
  "name": "Apple",
  "color": "rgb(178,93, 217)",
  "msg": "dfsdfsd"
 },
 {
  "name": "Apple",
  "color": "rgb(178,93, 217)",
  "msg": "dfsdf"
 },
 {
  "name": "Apple",
  "color": "rgb(178,93, 217)",
  "msg": "dfsd"
 },
 {
  "name": "Apple",
  "color": "rgb(178,93, 217)",
  "msg": "gsdsdf"
 },
 {
  "name": "Apple",
  "color": "rgb(178,93, 217)",
  "msg": "sdfs"
 },
 {
  "name": "Apple",
  "color": "rgb(178,93, 217)",
  "msg": "sfds"
 },
 {
  "name": "Apple",
  "color": "rgb(178,93, 217)",
  "msg": "dfsd"
 },
 {
  "name": "Apple",
  "color": "rgb(64,112, 207)",
  "msg": "Hello!"
 },
 {
  "name": "Toyota",
  "color": "rgb(36,107, 10)",
  "msg": "Hello!"
 },
 {
  "name": "Toyota",
  "color": "rgb(36,107, 10)",
  "msg": "what is this"
 },
 {
  "name": "Toyota",
  "color": "#975ad1",
  "msg": "Hello!"
 },
 {
  "name": "Toyota",
  "color": "#975ad1",
  "msg": "sasd"
 },
 {
  "name": "Toyota",
  "color": "#975ad1",
  "msg": "sdfas"
 },
 {
  "name": "Toyota",
  "color": "#975ad1",
  "msg": "sdfa"
 }
]